^C:\Users\airat\labs\3 sem\Sample-Test1\Sample-Test1.vcxproj
C:\Users\airat\labs\3 sem\lab1_2\x64\Debug\gtest.pdb
C:\Users\airat\labs\3 sem\lab1_2\x64\Debug\gtest_main.pdb
^C:\Users\airat\labs\3 sem\Sample-Test1\Sample-Test1.vcxproj
C:\Users\airat\labs\3 sem\lab1_2\x64\Debug\gtest.pdb
C:\Users\airat\labs\3 sem\lab1_2\x64\Debug\gtest_main.pdb
^C:\Users\airat\labs\3 sem\Sample-Test1\Sample-Test1.vcxproj
C:\Users\airat\labs\3 sem\lab1_2\x64\Debug\gtest.pdb
C:\Users\airat\labs\3 sem\lab1_2\x64\Debug\gtest_main.pdb
^C:\Users\airat\labs\3 sem\Sample-Test1\Sample-Test1.vcxproj
C:\Users\airat\labs\3 sem\lab1_2\x64\Debug\gtest.pdb
C:\Users\airat\labs\3 sem\lab1_2\x64\Debug\gtest_main.pdb
^C:\Users\airat\labs\3 sem\Sample-Test1\Sample-Test1.vcxproj
C:\Users\airat\labs\3 sem\lab1_2\x64\Debug\gtest.pdb
C:\Users\airat\labs\3 sem\lab1_2\x64\Debug\gtest_main.pdb
^C:\Users\airat\labs\3 sem\Sample-Test1\Sample-Test1.vcxproj
C:\Users\airat\labs\3 sem\lab1_2\x64\Debug\gtest.pdb
C:\Users\airat\labs\3 sem\lab1_2\x64\Debug\gtest_main.pdb
^C:\Users\airat\labs\3 sem\Sample-Test1\Sample-Test1.vcxproj
C:\Users\airat\labs\3 sem\lab1_2\x64\Debug\gtest.pdb
C:\Users\airat\labs\3 sem\lab1_2\x64\Debug\gtest_main.pdb
^C:\Users\airat\labs\3 sem\Sample-Test1\Sample-Test1.vcxproj
C:\Users\airat\labs\3 sem\lab1_2\x64\Debug\gtest.pdb
C:\Users\airat\labs\3 sem\lab1_2\x64\Debug\gtest_main.pdb
^C:\Users\airat\labs\3 sem\Sample-Test1\Sample-Test1.vcxproj
C:\Users\airat\labs\3 sem\lab1_2\x64\Debug\gtest.pdb
C:\Users\airat\labs\3 sem\lab1_2\x64\Debug\gtest_main.pdb
^C:\Users\airat\labs\3 sem\Sample-Test1\Sample-Test1.vcxproj
C:\Users\airat\labs\3 sem\lab1_2\x64\Debug\gtest.pdb
C:\Users\airat\labs\3 sem\lab1_2\x64\Debug\gtest_main.pdb
^C:\Users\airat\labs\3 sem\Sample-Test1\Sample-Test1.vcxproj
C:\Users\airat\labs\3 sem\lab1_2\x64\Debug\gtest.pdb
C:\Users\airat\labs\3 sem\lab1_2\x64\Debug\gtest_main.pdb
^C:\Users\airat\labs\3 sem\Sample-Test1\Sample-Test1.vcxproj
C:\Users\airat\labs\3 sem\lab1_2\x64\Debug\gtest.pdb
C:\Users\airat\labs\3 sem\lab1_2\x64\Debug\gtest_main.pdb
^C:\Users\airat\labs\3 sem\Sample-Test1\Sample-Test1.vcxproj
C:\Users\airat\labs\3 sem\lab1_2\x64\Debug\gtest.pdb
C:\Users\airat\labs\3 sem\lab1_2\x64\Debug\gtest_main.pdb
^C:\Users\airat\labs\3 sem\Sample-Test1\Sample-Test1.vcxproj
C:\Users\airat\labs\3 sem\lab1_2\x64\Debug\gtest.pdb
C:\Users\airat\labs\3 sem\lab1_2\x64\Debug\gtest_main.pdb
^C:\Users\airat\labs\3 sem\Sample-Test1\Sample-Test1.vcxproj
C:\Users\airat\labs\3 sem\lab1_2\x64\Debug\gtest.pdb
C:\Users\airat\labs\3 sem\lab1_2\x64\Debug\gtest_main.pdb
^C:\Users\airat\labs\3 sem\Sample-Test1\Sample-Test1.vcxproj
C:\Users\airat\labs\3 sem\lab1_2\x64\Debug\gtest.pdb
C:\Users\airat\labs\3 sem\lab1_2\x64\Debug\gtest_main.pdb
^C:\Users\airat\labs\3 sem\Sample-Test1\Sample-Test1.vcxproj
C:\Users\airat\labs\3 sem\lab1_2\x64\Debug\gtest.pdb
C:\Users\airat\labs\3 sem\lab1_2\x64\Debug\gtest_main.pdb
^C:\Users\airat\labs\3 sem\Sample-Test1\Sample-Test1.vcxproj
C:\Users\airat\labs\3 sem\lab1_2\x64\Debug\gtest.pdb
C:\Users\airat\labs\3 sem\lab1_2\x64\Debug\gtest_main.pdb
^C:\Users\airat\labs\3 sem\Sample-Test1\Sample-Test1.vcxproj
C:\Users\airat\labs\3 sem\lab1_2\x64\Debug\gtest.pdb
C:\Users\airat\labs\3 sem\lab1_2\x64\Debug\gtest_main.pdb
^C:\Users\airat\labs\3 sem\Sample-Test1\Sample-Test1.vcxproj
C:\Users\airat\labs\3 sem\lab1_2\x64\Debug\gtest.pdb
C:\Users\airat\labs\3 sem\lab1_2\x64\Debug\gtest_main.pdb
^C:\Users\airat\labs\3 sem\Sample-Test1\Sample-Test1.vcxproj
C:\Users\airat\labs\3 sem\lab1_2\x64\Debug\gtest.pdb
C:\Users\airat\labs\3 sem\lab1_2\x64\Debug\gtest_main.pdb
^C:\Users\airat\labs\3 sem\Sample-Test1\Sample-Test1.vcxproj
C:\Users\airat\labs\3 sem\lab1_2\x64\Debug\gtest.pdb
C:\Users\airat\labs\3 sem\lab1_2\x64\Debug\gtest_main.pdb
^C:\Users\airat\labs\3 sem\Sample-Test1\Sample-Test1.vcxproj
C:\Users\airat\labs\3 sem\lab1_2\x64\Debug\gtest.pdb
C:\Users\airat\labs\3 sem\lab1_2\x64\Debug\gtest_main.pdb
^C:\Users\airat\labs\3 sem\Sample-Test1\Sample-Test1.vcxproj
C:\Users\airat\labs\3 sem\lab1_2\x64\Debug\gtest.pdb
C:\Users\airat\labs\3 sem\lab1_2\x64\Debug\gtest_main.pdb
^C:\Users\airat\labs\3 sem\Sample-Test1\Sample-Test1.vcxproj
C:\Users\airat\labs\3 sem\lab1_2\x64\Debug\gtest.pdb
C:\Users\airat\labs\3 sem\lab1_2\x64\Debug\gtest_main.pdb
^C:\Users\airat\labs\3 sem\Sample-Test1\Sample-Test1.vcxproj
C:\Users\airat\labs\3 sem\lab1_2\x64\Debug\gtest.pdb
C:\Users\airat\labs\3 sem\lab1_2\x64\Debug\gtest_main.pdb
